register_tree/register_tree_tb.vcd
$version Generated by VerilatedVcd $end
$timescale 1ps $end
 $scope module TOP $end
  $scope module register_tree_tb $end
   $var wire 32 1! TREE_DEPTH [31:0] $end
   $var wire 32 2! DATA_WIDTH [31:0] $end
   $var wire 1 b clk $end
   $var wire 1 # replace $end
   $var wire 32 $ new_item [31:0] $end
   $var wire 32 H top_item [31:0] $end
   $scope module dut $end
    $var wire 32 1! TREE_DEPTH [31:0] $end
    $var wire 32 2! DATA_WIDTH [31:0] $end
    $var wire 1 b clk $end
    $var wire 1 # replace $end
    $var wire 32 $ new_item [31:0] $end
    $var wire 32 H top_item [31:0] $end
    $var wire 32 3! NUM_NODES [31:0] $end
    $var wire 32 * tree[0] [31:0] $end
    $var wire 32 + tree[1] [31:0] $end
    $var wire 32 , tree[2] [31:0] $end
    $var wire 32 - tree[3] [31:0] $end
    $var wire 32 . tree[4] [31:0] $end
    $var wire 32 / tree[5] [31:0] $end
    $var wire 32 0 tree[6] [31:0] $end
    $var wire 32 1 tree[7] [31:0] $end
    $var wire 32 2 tree[8] [31:0] $end
    $var wire 32 3 tree[9] [31:0] $end
    $var wire 32 4 tree[10] [31:0] $end
    $var wire 32 5 tree[11] [31:0] $end
    $var wire 32 6 tree[12] [31:0] $end
    $var wire 32 7 tree[13] [31:0] $end
    $var wire 32 8 tree[14] [31:0] $end
    $var wire 32 M new_parent[0] [31:0] $end
    $var wire 32 N new_parent[1] [31:0] $end
    $var wire 32 O new_parent[2] [31:0] $end
    $var wire 32 P new_parent[3] [31:0] $end
    $var wire 32 Q new_parent[4] [31:0] $end
    $var wire 32 R new_parent[5] [31:0] $end
    $var wire 32 S new_parent[6] [31:0] $end
    $var wire 32 T new_left_child[0] [31:0] $end
    $var wire 32 U new_left_child[1] [31:0] $end
    $var wire 32 V new_left_child[2] [31:0] $end
    $var wire 32 W new_left_child[3] [31:0] $end
    $var wire 32 X new_left_child[4] [31:0] $end
    $var wire 32 Y new_left_child[5] [31:0] $end
    $var wire 32 Z new_left_child[6] [31:0] $end
    $var wire 32 [ new_right_child[0] [31:0] $end
    $var wire 32 \ new_right_child[1] [31:0] $end
    $var wire 32 ] new_right_child[2] [31:0] $end
    $var wire 32 ^ new_right_child[3] [31:0] $end
    $var wire 32 _ new_right_child[4] [31:0] $end
    $var wire 32 ` new_right_child[5] [31:0] $end
    $var wire 32 a new_right_child[6] [31:0] $end
    $var wire 1 c level_indicator $end
    $scope module comparator_units[0] $end
     $scope module comparator_inst $end
      $var wire 32 2! DATA_WIDTH [31:0] $end
      $var wire 32 9 parent [31:0] $end
      $var wire 32 : left_child [31:0] $end
      $var wire 32 ; right_child [31:0] $end
      $var wire 32 d new_parent [31:0] $end
      $var wire 32 e new_left_child [31:0] $end
      $var wire 32 f new_right_child [31:0] $end
      $var wire 1 g left_greater_than_right $end
      $var wire 1 h parent_less_than_left $end
      $var wire 1 i parent_less_than_right $end
     $upscope $end
    $upscope $end
    $scope module comparator_units[1] $end
     $scope module comparator_inst $end
      $var wire 32 2! DATA_WIDTH [31:0] $end
      $var wire 32 : parent [31:0] $end
      $var wire 32 < left_child [31:0] $end
      $var wire 32 = right_child [31:0] $end
      $var wire 32 j new_parent [31:0] $end
      $var wire 32 k new_left_child [31:0] $end
      $var wire 32 l new_right_child [31:0] $end
      $var wire 1 m left_greater_than_right $end
      $var wire 1 n parent_less_than_left $end
      $var wire 1 o parent_less_than_right $end
     $upscope $end
    $upscope $end
    $scope module comparator_units[2] $end
     $scope module comparator_inst $end
      $var wire 32 2! DATA_WIDTH [31:0] $end
      $var wire 32 ; parent [31:0] $end
      $var wire 32 > left_child [31:0] $end
      $var wire 32 ? right_child [31:0] $end
      $var wire 32 p new_parent [31:0] $end
      $var wire 32 q new_left_child [31:0] $end
      $var wire 32 r new_right_child [31:0] $end
      $var wire 1 s left_greater_than_right $end
      $var wire 1 t parent_less_than_left $end
      $var wire 1 u parent_less_than_right $end
     $upscope $end
    $upscope $end
    $scope module comparator_units[3] $end
     $scope module comparator_inst $end
      $var wire 32 2! DATA_WIDTH [31:0] $end
      $var wire 32 < parent [31:0] $end
      $var wire 32 @ left_child [31:0] $end
      $var wire 32 A right_child [31:0] $end
      $var wire 32 v new_parent [31:0] $end
      $var wire 32 w new_left_child [31:0] $end
      $var wire 32 x new_right_child [31:0] $end
      $var wire 1 y left_greater_than_right $end
      $var wire 1 z parent_less_than_left $end
      $var wire 1 { parent_less_than_right $end
     $upscope $end
    $upscope $end
    $scope module comparator_units[4] $end
     $scope module comparator_inst $end
      $var wire 32 2! DATA_WIDTH [31:0] $end
      $var wire 32 = parent [31:0] $end
      $var wire 32 B left_child [31:0] $end
      $var wire 32 C right_child [31:0] $end
      $var wire 32 | new_parent [31:0] $end
      $var wire 32 } new_left_child [31:0] $end
      $var wire 32 ~ new_right_child [31:0] $end
      $var wire 1 !! left_greater_than_right $end
      $var wire 1 "! parent_less_than_left $end
      $var wire 1 #! parent_less_than_right $end
     $upscope $end
    $upscope $end
    $scope module comparator_units[5] $end
     $scope module comparator_inst $end
      $var wire 32 2! DATA_WIDTH [31:0] $end
      $var wire 32 > parent [31:0] $end
      $var wire 32 D left_child [31:0] $end
      $var wire 32 E right_child [31:0] $end
      $var wire 32 $! new_parent [31:0] $end
      $var wire 32 %! new_left_child [31:0] $end
      $var wire 32 &! new_right_child [31:0] $end
      $var wire 1 '! left_greater_than_right $end
      $var wire 1 (! parent_less_than_left $end
      $var wire 1 )! parent_less_than_right $end
     $upscope $end
    $upscope $end
    $scope module comparator_units[6] $end
     $scope module comparator_inst $end
      $var wire 32 2! DATA_WIDTH [31:0] $end
      $var wire 32 ? parent [31:0] $end
      $var wire 32 F left_child [31:0] $end
      $var wire 32 G right_child [31:0] $end
      $var wire 32 *! new_parent [31:0] $end
      $var wire 32 +! new_left_child [31:0] $end
      $var wire 32 ,! new_right_child [31:0] $end
      $var wire 1 -! left_greater_than_right $end
      $var wire 1 .! parent_less_than_left $end
      $var wire 1 /! parent_less_than_right $end
     $upscope $end
    $upscope $end
    $scope module unnamedblk1 $end
     $var wire 32 0! j [31:0] $end
    $upscope $end
    $scope module unnamedblk2 $end
     $var wire 32 I k [31:0] $end
     $scope module unnamedblk3 $end
      $var wire 32 J j [31:0] $end
     $upscope $end
    $upscope $end
    $scope module unnamedblk4 $end
     $var wire 32 K m [31:0] $end
     $scope module unnamedblk5 $end
      $var wire 32 L n [31:0] $end
     $upscope $end
    $upscope $end
   $upscope $end
   $scope module unnamedblk1 $end
    $var wire 32 % i [31:0] $end
   $upscope $end
   $scope module unnamedblk2 $end
    $var wire 32 & i [31:0] $end
   $upscope $end
   $scope module unnamedblk3 $end
    $var wire 32 ' i [31:0] $end
   $upscope $end
   $scope module unnamedblk4 $end
    $var wire 32 ( i [31:0] $end
   $upscope $end
   $scope module unnamedblk5 $end
    $var wire 32 ) i [31:0] $end
   $upscope $end
  $upscope $end
 $upscope $end
$enddefinitions $end


#0
0#
b00000000000000000000000000000000 $
b00000000000000000000000000000000 %
b00000000000000000000000000000000 &
b00000000000000000000000000000000 '
b00000000000000000000000000000000 (
b00000000000000000000000000000000 )
b00000000000000000000000000001010 *
b00000000000000000000000000010100 +
b00000000000000000000000000011110 ,
b00000000000000000000000000101000 -
b00000000000000000000000000110010 .
b00000000000000000000000000111100 /
b00000000000000000000000001000110 0
b00000000000000000000000001010000 1
b00000000000000000000000001011010 2
b00000000000000000000000001100100 3
b00000000000000000000000001101110 4
b00000000000000000000000001111000 5
b00000000000000000000000010000010 6
b00000000000000000000000010001100 7
b00000000000000000000000010010110 8
b00000000000000000000000000001010 9
b00000000000000000000000000010100 :
b00000000000000000000000000011110 ;
b00000000000000000000000000101000 <
b00000000000000000000000000110010 =
b00000000000000000000000000111100 >
b00000000000000000000000001000110 ?
b00000000000000000000000001010000 @
b00000000000000000000000001011010 A
b00000000000000000000000001100100 B
b00000000000000000000000001101110 C
b00000000000000000000000001111000 D
b00000000000000000000000010000010 E
b00000000000000000000000010001100 F
b00000000000000000000000010010110 G
b00000000000000000000000000000000 H
b00000000000000000000000000000000 I
b00000000000000000000000000000000 J
b00000000000000000000000000000000 K
b00000000000000000000000000000000 L
b00000000000000000000000000011110 M
b00000000000000000000000000110010 N
b00000000000000000000000001000110 O
b00000000000000000000000001011010 P
b00000000000000000000000001101110 Q
b00000000000000000000000010000010 R
b00000000000000000000000010010110 S
b00000000000000000000000000010100 T
b00000000000000000000000000101000 U
b00000000000000000000000000111100 V
b00000000000000000000000001010000 W
b00000000000000000000000001100100 X
b00000000000000000000000001111000 Y
b00000000000000000000000010001100 Z
b00000000000000000000000000001010 [
b00000000000000000000000000010100 \
b00000000000000000000000000011110 ]
b00000000000000000000000000101000 ^
b00000000000000000000000000110010 _
b00000000000000000000000000111100 `
b00000000000000000000000001000110 a
0b
0c
b00000000000000000000000000011110 d
b00000000000000000000000000010100 e
b00000000000000000000000000001010 f
0g
1h
1i
b00000000000000000000000000110010 j
b00000000000000000000000000101000 k
b00000000000000000000000000010100 l
0m
1n
1o
b00000000000000000000000001000110 p
b00000000000000000000000000111100 q
b00000000000000000000000000011110 r
0s
1t
1u
b00000000000000000000000001011010 v
b00000000000000000000000001010000 w
b00000000000000000000000000101000 x
0y
1z
1{
b00000000000000000000000001101110 |
b00000000000000000000000001100100 }
b00000000000000000000000000110010 ~
0!!
1"!
1#!
b00000000000000000000000010000010 $!
b00000000000000000000000001111000 %!
b00000000000000000000000000111100 &!
0'!
1(!
1)!
b00000000000000000000000010010110 *!
b00000000000000000000000010001100 +!
b00000000000000000000000001000110 ,!
0-!
1.!
1/!
b00000000000000000000000000001111 0!
b00000000000000000000000000000100 1!
b00000000000000000000000000100000 2!
b00000000000000000000000000001111 3!
#5
b00000000000000000000000000011110 *
b00000000000000000000000000001010 ,
b00000000000000000000000001011010 -
b00000000000000000000000001101110 .
b00000000000000000000000010000010 /
b00000000000000000000000010010110 0
b00000000000000000000000000101000 2
b00000000000000000000000000110010 4
b00000000000000000000000000111100 6
b00000000000000000000000001000110 8
b00000000000000000000000000011110 9
b00000000000000000000000000001010 ;
b00000000000000000000000001011010 <
b00000000000000000000000001101110 =
b00000000000000000000000010000010 >
b00000000000000000000000010010110 ?
b00000000000000000000000000101000 A
b00000000000000000000000000110010 C
b00000000000000000000000000111100 E
b00000000000000000000000001000110 G
b00000000000000000000000000000100 I
b00000000000000000000000000000111 J
b00000000000000000000000001101110 N
b00000000000000000000000010010110 O
b00000000000000000000000001011010 U
b00000000000000000000000010000010 V
b00000000000000000000000000001010 ]
1b
1c
1g
0h
0i
b00000000000000000000000001101110 j
b00000000000000000000000001011010 k
b00000000000000000000000010010110 p
b00000000000000000000000010000010 q
b00000000000000000000000000001010 r
1y
0z
0{
1!!
0"!
0#!
1'!
0(!
0)!
1-!
0.!
0/!
#10
0b
#15
b00000000000000000000000001101110 +
b00000000000000000000000010010110 ,
b00000000000000000000000000010100 .
b00000000000000000000000000001010 0
b00000000000000000000000001101110 :
b00000000000000000000000010010110 ;
b00000000000000000000000000010100 =
b00000000000000000000000000001010 ?
b00000000000000000000000000000011 K
b00000000000000000000000000000011 L
b00000000000000000000000010010110 M
b00000000000000000000000001100100 Q
b00000000000000000000000010001100 S
b00000000000000000000000001101110 T
b00000000000000000000000000010100 X
b00000000000000000000000000001010 Z
b00000000000000000000000000011110 [
1b
0c
b00000000000000000000000010010110 d
b00000000000000000000000001101110 e
b00000000000000000000000000011110 f
0g
1h
1i
1m
0n
0o
1s
0t
0u
b00000000000000000000000001100100 |
b00000000000000000000000000010100 }
1"!
1#!
b00000000000000000000000010001100 *!
b00000000000000000000000000001010 +!
1.!
1/!
#20
0b
#25
b00000000000000000000000010010110 *
b00000000000000000000000000011110 ,
b00000000000000000000000001100100 .
b00000000000000000000000010001100 0
b00000000000000000000000000010100 3
b00000000000000000000000000001010 7
b00000000000000000000000010010110 9
b00000000000000000000000000011110 ;
b00000000000000000000000001100100 =
b00000000000000000000000010001100 ?
b00000000000000000000000000010100 B
b00000000000000000000000000001010 F
b00000000000000000000000010001100 O
b00000000000000000000000001100100 \
b00000000000000000000000000011110 ]
1b
1c
1g
0h
0i
b00000000000000000000000001100100 l
0m
b00000000000000000000000010001100 p
b00000000000000000000000000011110 r
0s
1t
1u
0!!
0"!
0#!
0-!
0.!
0/!
#30
0b
#35
b00000000000000000000000010001100 ,
b00000000000000000000000000011110 0
b00000000000000000000000010001100 ;
b00000000000000000000000000011110 ?
b00000000000000000000000001000110 S
b00000000000000000000000010001100 [
b00000000000000000000000000011110 a
1b
0c
b00000000000000000000000010001100 f
0g
1s
0t
0u
b00000000000000000000000001000110 *!
b00000000000000000000000000011110 ,!
1/!
#40
0b
#45
1#
b00000000000000000000000000000001 $
b00000000000000000000000000000001 *
b00000000000000000000000001000110 0
b00000000000000000000000000011110 8
b00000000000000000000000000000001 9
b00000000000000000000000001000110 ?
b00000000000000000000000000011110 G
b00000000000000000000000010010110 H
b00000000000000000000000010001100 M
b00000000000000000000000000000001 [
b00000000000000000000000001000110 ]
1b
1c
b00000000000000000000000010001100 d
b00000000000000000000000000000001 f
1h
1i
b00000000000000000000000001000110 r
0/!
#50
0b
#55
0#
1b
0c
#60
0b
#65
b00000000000000000000000010001100 *
b00000000000000000000000000000001 ,
b00000000000000000000000010001100 9
b00000000000000000000000000000001 ;
b00000000000000000000000010000010 O
b00000000000000000000000000000001 V
1b
1c
1g
0h
0i
b00000000000000000000000010000010 p
b00000000000000000000000000000001 q
1t
1u
#70
0b
#75
b00000000000000000000000000000010 %
b00000000000000000000000010000010 ,
b00000000000000000000000000000001 /
b00000000000000000000000010000010 ;
b00000000000000000000000000000001 >
b00000000000000000000000001111000 R
b00000000000000000000000000000001 Y
b00000000000000000000000010000010 [
1b
0c
b00000000000000000000000010000010 f
0g
0s
0t
0u
b00000000000000000000000001111000 $!
b00000000000000000000000000000001 %!
1(!
1)!
#80
0b
#85
1#
b00000000000000000000000000000010 $
b00000000000000000000000000000010 *
b00000000000000000000000001111000 /
b00000000000000000000000000000001 5
b00000000000000000000000000000010 9
b00000000000000000000000001111000 >
b00000000000000000000000000000001 D
b00000000000000000000000010001100 H
b00000000000000000000000010000010 M
b00000000000000000000000001111000 V
b00000000000000000000000000000010 [
1b
1c
b00000000000000000000000010000010 d
b00000000000000000000000000000010 f
1h
1i
b00000000000000000000000001111000 q
1s
0'!
0(!
0)!
#90
0b
#95
0#
1b
0c
#100
0b
#105
b00000000000000000000000010000010 *
b00000000000000000000000000000010 ,
b00000000000000000000000010000010 9
b00000000000000000000000000000010 ;
b00000000000000000000000001111000 O
b00000000000000000000000000000010 V
1b
1c
1g
0h
0i
b00000000000000000000000001111000 p
b00000000000000000000000000000010 q
1t
1u
#110
0b
#115
b00000000000000000000000000000011 %
b00000000000000000000000001111000 ,
b00000000000000000000000000000010 /
b00000000000000000000000001111000 ;
b00000000000000000000000000000010 >
b00000000000000000000000000111100 R
b00000000000000000000000001111000 [
b00000000000000000000000000000010 `
1b
0c
b00000000000000000000000001111000 f
0g
0s
0t
0u
b00000000000000000000000000111100 $!
b00000000000000000000000000000010 &!
1)!
#120
0b
#125
1#
b00000000000000000000000000000011 $
b00000000000000000000000000000011 *
b00000000000000000000000000111100 /
b00000000000000000000000000000010 6
b00000000000000000000000000000011 9
b00000000000000000000000000111100 >
b00000000000000000000000000000010 E
b00000000000000000000000010000010 H
b00000000000000000000000001111000 M
b00000000000000000000000000111100 V
b00000000000000000000000000000011 [
1b
1c
b00000000000000000000000001111000 d
b00000000000000000000000000000011 f
1h
1i
b00000000000000000000000000111100 q
0)!
#130
0b
#135
0#
1b
0c
#140
0b
#145
b00000000000000000000000001111000 *
b00000000000000000000000000000011 ,
b00000000000000000000000001111000 9
b00000000000000000000000000000011 ;
b00000000000000000000000001000110 O
b00000000000000000000000000000011 ]
1b
1c
1g
0h
0i
b00000000000000000000000001000110 p
b00000000000000000000000000000011 r
1t
1u
#150
0b
#155
b00000000000000000000000000000100 %
b00000000000000000000000001000110 ,
b00000000000000000000000000000011 0
b00000000000000000000000001000110 ;
b00000000000000000000000000000011 ?
b00000000000000000000000000011110 S
b00000000000000000000000001000110 [
b00000000000000000000000000000011 a
1b
0c
b00000000000000000000000001000110 f
1s
0t
0u
b00000000000000000000000000011110 *!
b00000000000000000000000000000011 ,!
1.!
1/!
#160
0b
#165
1#
b00000000000000000000000000000100 $
b00000000000000000000000000000100 *
b00000000000000000000000000011110 0
b00000000000000000000000000000011 8
b00000000000000000000000000000100 9
b00000000000000000000000000011110 ?
b00000000000000000000000000000011 G
b00000000000000000000000001111000 H
b00000000000000000000000001101110 M
b00000000000000000000000000000100 T
b00000000000000000000000000011110 ]
1b
1c
b00000000000000000000000001101110 d
b00000000000000000000000000000100 e
1h
1i
b00000000000000000000000000011110 r
1-!
0.!
0/!
#170
0b
#175
0#
1b
0c
#180
0b
#185
b00000000000000000000000001101110 *
b00000000000000000000000000000100 +
b00000000000000000000000001101110 9
b00000000000000000000000000000100 :
b00000000000000000000000001100100 N
b00000000000000000000000000000100 \
1b
1c
0g
0h
0i
b00000000000000000000000001100100 j
b00000000000000000000000000000100 l
1n
1o
#190
0b
#195
b00000000000000000000000000000101 %
b00000000000000000000000001100100 +
b00000000000000000000000000000100 .
b00000000000000000000000001100100 :
b00000000000000000000000000000100 =
b00000000000000000000000000110010 Q
b00000000000000000000000001100100 T
b00000000000000000000000000000100 _
1b
0c
b00000000000000000000000001100100 e
1g
1m
0n
0o
b00000000000000000000000000110010 |
b00000000000000000000000000000100 ~
1"!
1#!
#200
0b
#205
1#
b00000000000000000000000000000101 $
b00000000000000000000000000000101 *
b00000000000000000000000000110010 .
b00000000000000000000000000000100 4
b00000000000000000000000000000101 9
b00000000000000000000000000110010 =
b00000000000000000000000000000100 C
b00000000000000000000000001101110 H
b00000000000000000000000001100100 M
b00000000000000000000000000000101 T
b00000000000000000000000000110010 \
1b
1c
b00000000000000000000000001100100 d
b00000000000000000000000000000101 e
1h
1i
b00000000000000000000000000110010 l
1!!
0"!
0#!
#210
0b
#215
0#
1b
0c
#220
0b
#225
b00000000000000000000000001100100 *
b00000000000000000000000000000101 +
b00000000000000000000000001100100 9
b00000000000000000000000000000101 :
b00000000000000000000000001011010 N
b00000000000000000000000000000101 U
1b
1c
0g
0h
0i
b00000000000000000000000001011010 j
b00000000000000000000000000000101 k
1n
1o
#230
0b
#235
b00000000000000000000000000000110 %
b00000000000000000000000001011010 +
b00000000000000000000000000000101 -
b00000000000000000000000001011010 :
b00000000000000000000000000000101 <
b00000000000000000000000001010000 P
b00000000000000000000000001011010 T
b00000000000000000000000000000101 W
1b
0c
b00000000000000000000000001011010 e
1g
0m
0n
0o
b00000000000000000000000001010000 v
b00000000000000000000000000000101 w
1z
1{
#240
0b
#245
1#
b00000000000000000000000000000110 $
b00000000000000000000000000000110 *
b00000000000000000000000001010000 -
b00000000000000000000000000000101 1
b00000000000000000000000000000110 9
b00000000000000000000000001010000 <
b00000000000000000000000000000101 @
b00000000000000000000000001100100 H
b00000000000000000000000001011010 M
b00000000000000000000000000000110 T
b00000000000000000000000001010000 U
1b
1c
b00000000000000000000000001011010 d
b00000000000000000000000000000110 e
1h
1i
b00000000000000000000000001010000 k
1m
0y
0z
0{
#250
0b
#255
0#
1b
0c
#260
0b
#265
b00000000000000000000000001011010 *
b00000000000000000000000000000110 +
b00000000000000000000000001011010 9
b00000000000000000000000000000110 :
b00000000000000000000000001010000 N
b00000000000000000000000000000110 U
1b
1c
0g
0h
0i
b00000000000000000000000001010000 j
b00000000000000000000000000000110 k
1n
1o
#270
0b
#275
b00000000000000000000000000000111 %
b00000000000000000000000001010000 +
b00000000000000000000000000000110 -
b00000000000000000000000001010000 :
b00000000000000000000000000000110 <
b00000000000000000000000000101000 P
b00000000000000000000000001010000 T
b00000000000000000000000000000110 ^
1b
0c
b00000000000000000000000001010000 e
1g
0m
0n
0o
b00000000000000000000000000101000 v
b00000000000000000000000000000110 x
1{
#280
0b
#285
1#
b00000000000000000000000000000111 $
b00000000000000000000000000000111 *
b00000000000000000000000000101000 -
b00000000000000000000000000000110 2
b00000000000000000000000000000111 9
b00000000000000000000000000101000 <
b00000000000000000000000000000110 A
b00000000000000000000000001011010 H
b00000000000000000000000001010000 M
b00000000000000000000000000000111 T
b00000000000000000000000000101000 U
1b
1c
b00000000000000000000000001010000 d
b00000000000000000000000000000111 e
1h
1i
b00000000000000000000000000101000 k
0{
#290
0b
#295
0#
1b
0c
#300
0b
#305
b00000000000000000000000001010000 *
b00000000000000000000000000000111 +
b00000000000000000000000001010000 9
b00000000000000000000000000000111 :
b00000000000000000000000000110010 N
b00000000000000000000000000000111 \
1b
1c
0g
0h
0i
b00000000000000000000000000110010 j
b00000000000000000000000000000111 l
1n
1o
#310
0b
#315
b00000000000000000000000000001000 %
b00000000000000000000000000110010 +
b00000000000000000000000000000111 .
b00000000000000000000000000110010 :
b00000000000000000000000000000111 =
b00000000000000000000000000010100 Q
b00000000000000000000000000110010 T
b00000000000000000000000000000111 X
1b
0c
b00000000000000000000000000110010 e
1m
0n
0o
b00000000000000000000000000010100 |
b00000000000000000000000000000111 }
1"!
#320
0b
#325
1#
b00000000000000000000000000001000 $
b00000000000000000000000000001000 *
b00000000000000000000000000010100 .
b00000000000000000000000000000111 3
b00000000000000000000000000001000 9
b00000000000000000000000000010100 =
b00000000000000000000000000000111 B
b00000000000000000000000001010000 H
b00000000000000000000000001000110 M
b00000000000000000000000000001000 [
b00000000000000000000000000010100 \
1b
1c
b00000000000000000000000001000110 d
b00000000000000000000000000001000 f
1h
1i
b00000000000000000000000000010100 l
0"!
#330
0b
#335
0#
1b
0c
#340
0b
#345
b00000000000000000000000001000110 *
b00000000000000000000000000001000 ,
b00000000000000000000000001000110 9
b00000000000000000000000000001000 ;
b00000000000000000000000000111100 O
b00000000000000000000000000001000 V
1b
1c
1g
0h
0i
b00000000000000000000000000111100 p
b00000000000000000000000000001000 q
1t
1u
#350
0b
#355
b00000000000000000000000000001001 %
b00000000000000000000000000111100 ,
b00000000000000000000000000001000 /
b00000000000000000000000000111100 ;
b00000000000000000000000000001000 >
b00000000000000000000000000001000 R
b00000000000000000000000000111100 [
1b
0c
b00000000000000000000000000111100 f
0g
0s
0t
0u
b00000000000000000000000000001000 $!
#360
0b
#365
1#
b00000000000000000000000000001001 $
b00000000000000000000000000001001 *
b00000000000000000000000000001001 9
b00000000000000000000000001000110 H
b00000000000000000000000000111100 M
b00000000000000000000000000001001 [
1b
1c
b00000000000000000000000000111100 d
b00000000000000000000000000001001 f
1h
1i
#370
0b
#375
0#
1b
0c
#380
0b
#385
b00000000000000000000000000111100 *
b00000000000000000000000000001001 ,
b00000000000000000000000000111100 9
b00000000000000000000000000001001 ;
b00000000000000000000000000011110 O
b00000000000000000000000000001001 ]
1b
1c
1g
0h
0i
b00000000000000000000000000011110 p
b00000000000000000000000000001001 r
1u
#390
0b
#395
b00000000000000000000000000001010 %
b00000000000000000000000000011110 ,
b00000000000000000000000000001001 0
b00000000000000000000000000011110 ;
b00000000000000000000000000001001 ?
b00000000000000000000000000001010 S
b00000000000000000000000000001001 Z
b00000000000000000000000000011110 [
1b
0c
b00000000000000000000000000011110 f
0u
b00000000000000000000000000001010 *!
b00000000000000000000000000001001 +!
1.!
#400
0b
#405
1#
b00000000000000000000000000001010 $
b00000000000000000000000000001010 *
b00000000000000000000000000001010 0
b00000000000000000000000000001001 7
b00000000000000000000000000001010 9
b00000000000000000000000000001010 ?
b00000000000000000000000000001001 F
b00000000000000000000000000111100 H
b00000000000000000000000000110010 M
b00000000000000000000000000001010 T
b00000000000000000000000000001010 ]
1b
1c
b00000000000000000000000000110010 d
b00000000000000000000000000001010 e
1h
1i
b00000000000000000000000000001010 r
0.!
#410
0b
#415
0#
1b
0c
#420
0b
#425
b00000000000000000000000000110010 *
b00000000000000000000000000001010 +
b00000000000000000000000000110010 9
b00000000000000000000000000001010 :
b00000000000000000000000000101000 N
b00000000000000000000000000001010 U
1b
1c
0g
0h
0i
b00000000000000000000000000101000 j
b00000000000000000000000000001010 k
1n
1o
#430
0b
#435
b00000000000000000000000000001011 %
b00000000000000000000000000101000 +
b00000000000000000000000000001010 -
b00000000000000000000000000101000 :
b00000000000000000000000000001010 <
b00000000000000000000000000001010 P
b00000000000000000000000000101000 T
1b
0c
b00000000000000000000000000101000 e
1g
0m
0n
0o
b00000000000000000000000000001010 v
#440
0b
#445
1#
b00000000000000000000000000001011 $
b00000000000000000000000000001011 *
b00000000000000000000000000001011 9
b00000000000000000000000000110010 H
b00000000000000000000000000101000 M
b00000000000000000000000000001011 T
1b
1c
b00000000000000000000000000101000 d
b00000000000000000000000000001011 e
1h
1i
#450
0b
#455
0#
1b
0c
#460
0b
#465
b00000000000000000000000000101000 *
b00000000000000000000000000001011 +
b00000000000000000000000000101000 9
b00000000000000000000000000001011 :
b00000000000000000000000000010100 N
b00000000000000000000000000001011 \
1b
1c
0g
0h
0i
b00000000000000000000000000010100 j
b00000000000000000000000000001011 l
1o
#470
0b
#475
b00000000000000000000000000001100 %
b00000000000000000000000000010100 +
b00000000000000000000000000001011 .
b00000000000000000000000000010100 :
b00000000000000000000000000001011 =
b00000000000000000000000000001011 Q
b00000000000000000000000000010100 T
1b
0c
b00000000000000000000000000010100 e
0o
b00000000000000000000000000001011 |
#480
0b
#485
1#
b00000000000000000000000000001100 $
b00000000000000000000000000001100 *
b00000000000000000000000000001100 9
b00000000000000000000000000101000 H
b00000000000000000000000000011110 M
b00000000000000000000000000001100 [
1b
1c
b00000000000000000000000000011110 d
b00000000000000000000000000001100 f
1h
1i
#490
0b
#495
0#
1b
0c
#500
0b
#505
b00000000000000000000000000011110 *
b00000000000000000000000000001100 ,
b00000000000000000000000000011110 9
b00000000000000000000000000001100 ;
b00000000000000000000000000001100 O
1b
1c
1g
0h
0i
b00000000000000000000000000001100 p
#510
0b
#515
b00000000000000000000000000001101 %
1b
0c
#520
0b
#525
1#
b00000000000000000000000000001101 $
b00000000000000000000000000001101 *
b00000000000000000000000000001101 9
b00000000000000000000000000011110 H
b00000000000000000000000000010100 M
b00000000000000000000000000001101 T
1b
1c
b00000000000000000000000000010100 d
b00000000000000000000000000001101 e
1h
#530
0b
#535
0#
1b
0c
#540
0b
#545
b00000000000000000000000000010100 *
b00000000000000000000000000001101 +
b00000000000000000000000000010100 9
b00000000000000000000000000001101 :
b00000000000000000000000000001101 N
1b
1c
0h
b00000000000000000000000000001101 j
#550
0b
#555
b00000000000000000000000000001110 %
1b
0c
#560
0b
#565
1#
b00000000000000000000000000001110 $
b00000000000000000000000000001110 *
b00000000000000000000000000001110 9
b00000000000000000000000000010100 H
b00000000000000000000000000001110 M
1b
1c
b00000000000000000000000000001110 d
#570
0b
#575
0#
1b
0c
#580
0b
#585
1b
1c
#590
0b
#595
b00000000000000000000000000001111 %
1b
0c
#600
0b
#605
1#
b00000000000000000000000000001111 $
b00000000000000000000000000001111 *
b00000000000000000000000000001111 9
b00000000000000000000000000001110 H
b00000000000000000000000000001111 M
1b
1c
b00000000000000000000000000001111 d
#610
0b
#615
0#
1b
0c
#620
0b
#625
1b
1c
#630
0b
#635
b00000000000000000000000000010000 %
1b
0c
#640
0b
#645
1#
b00000000000000000000000000010000 $
b00000000000000000000000000010000 *
b00000000000000000000000000010000 9
b00000000000000000000000000001111 H
b00000000000000000000000000010000 M
1b
1c
b00000000000000000000000000010000 d
#650
0b
#655
0#
1b
0c
#660
0b
#665
1b
1c
#670
0b
#675
b00000000000000000000000000010001 %
1b
0c
#680
0b
#685
1#
b00000000000000000000000000010000 H
1b
1c
#690
0b
#695
0#
1b
0c
#700
0b
#705
1b
1c
#710
0b
#715
b00000000000000000000000000001111 &
1b
0c
#720
0b
#725
1#
b00000000000000000000000000001111 $
b00000000000000000000000000001111 *
b00000000000000000000000000001111 9
b00000000000000000000000000001111 M
1b
1c
b00000000000000000000000000001111 d
#730
0b
#735
0#
1b
0c
#740
0b
#745
1b
1c
#750
0b
#755
b00000000000000000000000000001110 &
1b
0c
#760
0b
#765
1#
b00000000000000000000000000001110 $
b00000000000000000000000000001110 *
b00000000000000000000000000001110 9
b00000000000000000000000000001111 H
b00000000000000000000000000001110 M
1b
1c
b00000000000000000000000000001110 d
#770
0b
#775
0#
1b
0c
#780
0b
#785
1b
1c
#790
0b
#795
b00000000000000000000000000001101 &
1b
0c
#800
0b
#805
1#
b00000000000000000000000000001101 $
b00000000000000000000000000001101 *
b00000000000000000000000000001101 9
b00000000000000000000000000001110 H
b00000000000000000000000000001101 M
1b
1c
b00000000000000000000000000001101 d
#810
0b
#815
0#
1b
0c
#820
0b
#825
1b
1c
#830
0b
#835
b00000000000000000000000000001100 &
1b
0c
#840
0b
#845
1#
b00000000000000000000000000001100 $
b00000000000000000000000000001100 *
b00000000000000000000000000001100 9
b00000000000000000000000000001101 H
b00000000000000000000000000001100 T
1b
1c
b00000000000000000000000000001100 e
1h
#850
0b
#855
0#
1b
0c
#860
0b
#865
b00000000000000000000000000001101 *
b00000000000000000000000000001100 +
b00000000000000000000000000001101 9
b00000000000000000000000000001100 :
b00000000000000000000000000001100 N
1b
1c
0g
0h
b00000000000000000000000000001100 j
#870
0b
#875
b00000000000000000000000000001011 &
1b
0c
#880
0b
#885
1#
b00000000000000000000000000001011 $
b00000000000000000000000000001011 *
b00000000000000000000000000001011 9
b00000000000000000000000000001100 M
b00000000000000000000000000001011 [
1b
1c
b00000000000000000000000000001100 d
b00000000000000000000000000001011 f
1h
1i
#890
0b
#895
0#
1b
0c
#900
0b
