systolic_array/vivado_systolic_array/vivado_systolic_array.sim/sim_1/behav/xsim/open_list_queue_tb.vcd
$date
   Wed Sep  4 22:09:47 2024
$end

$version
  2024.1
  $dumpfile ("open_list_queue_tb.vcd") 
$end

$timescale
  1ps
$end

$scope module open_list_queue_tb $end
$var reg 1 ! clk $end
$var reg 1 " reset $end
$var reg 1 # insert $end
$var reg 1 $ pop $end
$var reg 32 % in_data [31:0] $end
$var reg 32 & in_f_value [31:0] $end
$var reg 32 ' out_data [31:0] $end
$var reg 32 ( out_f_value [31:0] $end
$var reg 1 ) empty $end
$var reg 1 * full $end
$scope module uut $end
$var wire 1 + clk $end
$var wire 1 , insert $end
$var wire 1 - pop $end
$var wire 32 . in_data [31:0] $end
$var wire 32 / in_f_value [31:0] $end
$var reg 32 ' out_data [31:0] $end
$var reg 32 ( out_f_value [31:0] $end
$var reg 1 ) empty $end
$var reg 1 * full $end
$var reg 64 0 temp_node $end
$var reg 7 1 ib_valid [6:0] $end
$var reg 8 2 ob_valid [7:0] $end
$scope begin Block46_1 $end
$var reg 32 3 i [31:0] $end
$upscope $end
$scope begin Block82_4 $end
$var reg 32 4 i [31:0] $end
$upscope $end
$scope begin Block107_5 $end
$var reg 32 5 i [31:0] $end
$upscope $end
$upscope $end
$scope begin Block110_8 $end
$var reg 32 6 i [31:0] $end
$upscope $end
$upscope $end
$enddefinitions $end

#0
$dumpvars
0!
x"
0#
0$
b0 %
b0 &
bx '
bx (
x)
0*
0+
0,
0-
b0 .
b0 /
bx 0
b0 1
b0x 2
b1000 3
b111 4
b111 5
b0 6
$end

#5000
1!
1+

#10000
0!
0+

#15000
1!
1#
b1 %
b11001 &
1+
1,
b1 .
b11001 /

#20000
0!
0+

#25000
1!
1+

#30000
0!
0+

#35000
1!
b10 %
b1010010 &
1+
b10 .
b1010010 /

#40000
0!
0+

#45000
1!
1+

#50000
0!
0+

#55000
1!
b11 %
b1 &
1+
b11 .
b1 /

#60000
0!
0+

#65000
1!
1+

#70000
0!
0+

#75000
1!
b100 %
b11 &
1+
b100 .
b11 /

#80000
0!
0+

#85000
1!
1+

#90000
0!
0+

#95000
1!
b101 %
b100 &
1+
b101 .
b100 /

#100000
0!
0+

#105000
1!
1+

#110000
0!
0+

#115000
1!
b110 %
b101 &
1+
b110 .
b101 /

#120000
0!
0+

#125000
1!
1+

#130000
0!
0+

#135000
1!
b111 %
b110 &
1+
b111 .
b110 /

#140000
0!
0+

#145000
1!
1+

#150000
0!
0+

#155000
1!
b1000 %
b111 &
1+
b1000 .
b111 /

#160000
0!
0+

#165000
1!
1+

#170000
0!
0+

#175000
1!
b1001 %
b1000 &
1+
b1001 .
b1000 /

#180000
0!
0+

#185000
1!
1+

#190000
0!
0+

#195000
1!
0#
1+
0,

#200000
0!
0+

#205000
1!
1$
1+
1-
b1 6

#210000
0!
0+

#215000
1!
1+
b10 6

#220000
0!
0+

#225000
1!
1+
b11 6

#230000
0!
0+

#235000
1!
1+
b100 6

#240000
0!
0+

#245000
1!
1+
b101 6

#250000
0!
0+

#255000
1!
1+
b110 6

#260000
0!
0+

#265000
1!
1+
b111 6

#270000
0!
0+

#275000
1!
1+
b1000 6

#280000
0!
0+

#285000
1!
0$
1+
0-

